<?xml version="1.0" encoding="utf-8"?>
<!-- Generator: Adobe Illustrator 24.0.1, SVG Export Plug-In . SVG Version: 6.00 Build 0)  -->
<svg version="1.1" id="Camada_1" xmlns="http://www.w3.org/2000/svg" xmlns:xlink="http://www.w3.org/1999/xlink" x="0px" y="0px"
	 viewBox="0 0 48 48" style="enable-background:new 0 0 48 48;" xml:space="preserve">
<style type="text/css">
	.st0{fill:#FFFFFF;stroke:#000000;stroke-width:0.75;stroke-miterlimit:10;}
</style>
<g id="Expanded">
	<g>
		<g>
			<path class="st0" d="M24,20c-11.2,0-20-4-20-9s8.8-9,20-9s20,4,20,9S35.2,20,24,20z M24,4C15.5,4,6,6.9,6,11s9.5,7,18,7
				s18-2.9,18-7S32.5,4,24,4z"/>
		</g>
		<g>
			<path class="st0" d="M24,28c-11.2,0-20-4-20-9v-8c0-0.6,0.4-1,1-1s1,0.4,1,1v8c0,4.1,9.5,7,18,7s18-2.9,18-7v-8c0-0.6,0.4-1,1-1
				s1,0.4,1,1v8C44,24,35.2,28,24,28z"/>
		</g>
		<g>
			<path class="st0" d="M24,37c-11.2,0-20-4-20-9v-9c0-0.6,0.4-1,1-1s1,0.4,1,1v9c0,4.1,9.5,7,18,7s18-2.9,18-7v-9c0-0.6,0.4-1,1-1
				s1,0.4,1,1v9C44,33,35.2,37,24,37z"/>
		</g>
		<g>
			<path class="st0" d="M24,46c-11.2,0-20-4-20-9v-9c0-0.6,0.4-1,1-1s1,0.4,1,1v9c0,4.1,9.5,7,18,7s18-2.9,18-7v-9c0-0.6,0.4-1,1-1
				s1,0.4,1,1v9C44,42,35.2,46,24,46z"/>
		</g>
	</g>
</g>
</svg>
