<?xml version="1.0" encoding="utf-8"?>
<!-- Generator: Adobe Illustrator 24.0.1, SVG Export Plug-In . SVG Version: 6.00 Build 0)  -->
<svg version="1.1" id="Layer_1" xmlns="http://www.w3.org/2000/svg" xmlns:xlink="http://www.w3.org/1999/xlink" x="0px" y="0px"
	 viewBox="0 0 48 48" style="enable-background:new 0 0 48 48;" xml:space="preserve">
<style type="text/css">
	.st0{fill-rule:evenodd;clip-rule:evenodd;fill:#3498DB;}
</style>
<path class="st0" d="M44.9,14.4c0,0.1-0.1,0.2-0.2,0.3L16.8,42.6c-0.1,0.2-0.3,0.4-0.5,0.4L2.5,46.9c0,0-0.1,0-0.1,0l0,0
	c0,0,0,0,0,0c-0.1,0-0.2,0-0.3,0c-0.1,0-0.2,0-0.3,0c0,0,0,0-0.1,0c0,0,0,0,0,0c-0.1,0-0.2-0.1-0.2-0.1c0,0-0.1-0.1-0.1-0.1
	s-0.1-0.1-0.1-0.1c-0.1-0.1-0.1-0.2-0.1-0.2c0,0,0,0,0,0c0,0,0,0,0-0.1c0-0.1,0-0.2,0-0.3c0-0.1,0-0.2,0-0.3c0,0,0,0,0,0l0,0
	c0,0,0-0.1,0-0.1L5,31.7c0.1-0.2,0.2-0.4,0.4-0.5L32.9,3.7c0,0,0.1-0.1,0.1-0.1l0.3-0.3c0,0,0,0,0,0C34.9,1.9,36.8,1,39,1
	c4.4,0,8,3.6,8,8C47,11.1,46.2,13,44.9,14.4z M41.2,15.5l-3.6-3.6L13.9,35.5c0,0,0,0,0,0l2.4,4.8L41.2,15.5z M3.6,44.5l2.8-0.8l-2-2
	L3.6,44.5z M4.9,39.5l3.6,3.6l6.1-1.7c0,0-2.6-5.4-2.6-5.4l-5.4-2.6L4.9,39.5z M12.5,34.1C12.5,34.1,12.5,34.1,12.5,34.1l23.7-23.6
	l-3.6-3.6L7.7,31.7L12.5,34.1z M38.9,3c-1.8,0-3.4,0.8-4.5,2l0,0l-0.5,0.5l8.6,8.6l0.5-0.5l0,0c1.2-1.1,2-2.7,2-4.5
	C45,5.7,42.3,3,38.9,3z"/>
</svg>
